OES Matching Guide
…
It compares the strata-weighted average of within-strata differences to that which would be expected if we were to repeat an experiment with the same stratified design and same covariate values (and balanceTest uses a large sample Normal approximation to this distribution.)

setmeanDiffs <- dat %>%
  group_by(fm1) %>%
  summarise(
    diffAboveHS = mean(age[trtbin == 1]) - mean(age[trtbin == 0]),
    nb = n(),
    nTb = sum(trtbin),
    nCb = sum(1 - trtbin),
    hwt = (2 * (nCb * nTb) / (nTb + nCb))
  )
setmeanDiffs

# A tibble: 334 × 6
   fm1   diffAboveHS    nb   nTb   nCb   hwt
   <fct>       <dbl> <int> <dbl> <dbl> <dbl>
 1 1.1          2.52     2     1     1  1   
 2 1.10         5.22     3     1     2  1.33
 3 1.100        6.18     3     1     2  1.33
 4 1.101       12.6      2     1     1  1   
 5 1.102       16.3      2     1     1  1   
 6 1.103       12.5      4     1     3  1.5 
 7 1.104        9.35     2     1     1  1   
 8 1.105       -1.60     6     1     5  1.67
 9 1.106       10.5      2     1     1  1   
10 1.107       11.6      2     1     1  1   
# ℹ 324 more rows
…
